…
### 4. Anàlisi de les dades.

#### 4.1. Selecció dels grups de dades que es volen analitzar/comparar (planificació dels anàlisis a aplicar).

En primer lloc, creació de noves variables per provincia (nou dataset per provincia)

Creació de grups depen de si tenen invasores o no, en cada parcela mirar si té alguna invasora o cap i agrupar en una variable. Variable que sigui “conté invasora”. Creem la mitjana i desviació estàndard de la qualitat dels arbres en la parcela per a resoldre les preguntes plantejades i tenir noció també de la variabilitat el l'atribut de la qualitat.

``` r
ifn_par <- ifn3_subset %>% group_by(Estadillo) %>% summarise(calidad = mean(Calidad), calidad_sd=sd(Calidad), conte_invasora = max(Is_invasive))
ifn_par
```

    ## # A tibble: 4,029 x 4
    ##    Estadillo calidad calidad_sd conte_invasora
    ##        <int>   <dbl>      <dbl> <chr>         
    ##  1         1    2.44      0.920 No            
    ##  2         2    2.48      0.987 No            
    ##  3         3    2.41      0.839 No            
    ##  4         4    2.36      0.816 No            
    ##  5         5    2.42      0.855 No            
    ##  6         6    2.38      0.835 No            
    ##  7         7    2.34      0.768 No            
    ##  8         8    2.38      0.823 No            
    ##  9         9    2.27      0.735 No            
    ## 10        10    2.33      0.801 No            
    ## # ... with 4,019 more rows
…
